332;428;354;1437;526;247;427
293;559;388;1527;567;239;258
372;767;562;1948;927;235;433
406;563;341;1507;544;324;407
386;608;396;1501;558;319;363
438;843;689;2345;1148;243;341
534;660;367;1620;638;414;407
460;699;484;1856;762;400;416
385;789;621;2366;1149;304;282
655;776;423;1848;759;495;486
584;995;548;2056;893;518;319
515;1097;887;2630;1167;561;284
